2020-06-13 18:38:43 - Zalogowano jako: admin1
2020-06-13 18:38:43 - Zalogowano jako: admin1
2020-06-13 18:38:43 - Zalogowano jako: admin1
2020-06-13 18:50:41 - Zalogowano jako: admin1
2020-06-13 19:03:50 - Zalogowano jako: admin1
2020-06-13 19:03:50 - Do konta uzytkownika admin1 dodano sume 100
2020-06-13 19:03:50 - Zalogowano jako: admin1
2020-06-13 19:03:50 - Do konta uzytkownika admin1 dodano sume 100
2020-06-13 19:16:30 - Zalogowano jako: admin1
2020-06-13 19:16:30 - Do konta uzytkownika admin1 dodano sume 0
2020-06-13 19:16:30 - Do konta uzytkownika admin1 dodano sume 0
2020-06-13 19:16:30 - Do konta uzytkownika admin1 dodano sume 1
2020-06-13 19:16:30 - Do konta uzytkownika admin1 dodano sume 2
2020-06-13 19:16:30 - Zalogowano jako: admin1
2020-06-13 19:16:30 - Do konta uzytkownika admin1 dodano sume 1000
2020-06-13 19:16:30 - Zalogowano jako: admin1
2020-06-13 19:16:30 - Zalogowano jako: admin1
2020-06-13 19:16:30 - Zalogowano jako: admin1
2020-06-13 19:16:30 - Do konta uzytkownika admin1 dodano sume 0
2020-06-13 19:16:30 - Zalogowano jako: admin1
2020-06-13 19:16:30 - Do konta uzytkownika admin1 dodano sume 0
2020-06-13 19:16:30 - Do konta uzytkownika admin1 dodano sume 0
2020-06-13 19:16:30 - Zalogowano jako: admin1
2020-06-13 19:16:30 - Zalogowano jako: admin1
2020-06-13 19:16:30 - Do konta uzytkownika admin1 dodano sume 100
2020-06-13 19:16:30 - Do konta uzytkownika admin1 dodano sume 0
2020-06-13 19:16:30 - Zalogowano jako: admin1
2020-06-13 19:16:30 - Do konta uzytkownika admin1 dodano sume 100
2020-06-13 19:53:34 - Zalogowano jako: admin1
2020-06-13 19:53:34 - Do konta uzytkownika admin1 dodano sume 100
2020-06-13 19:53:34 - Zalogowano jako: admin1
2020-06-13 19:53:34 - Zalogowano jako: admin1
2020-06-13 19:56:43 - Zalogowano jako: admin1
2020-06-13 19:56:43 - Zalogowano jako: admin1
2020-06-13 20:00:15 - Zalogowano jako: admin1
2020-06-13 20:00:15 - Zalogowano jako: admin1
2020-06-13 20:00:15 - Do konta uzytkownika admin1 dodano sume 100
2020-06-13 20:00:15 - Zalogowano jako: admin1
2020-06-13 20:00:15 - Zalogowano jako: admin1
2020-06-13 20:00:15 - Zalogowano jako: admin1
2020-06-13 20:06:09 - Zalogowano jako: admin1
2020-06-13 20:06:09 - Zalogowano jako: admin1
2020-06-13 20:07:56 - Zalogowano jako: admin1
2020-06-13 20:07:56 - Do konta uzytkownika admin1 dodano sume 100
2020-06-13 20:07:56 - Zalogowano jako: admin1
2020-06-13 20:07:56 - Zalogowano jako: admin1
2020-06-13 20:07:56 - Zalogowano jako: admin1
2020-06-13 20:07:56 - Z konta uzytkownika admin1 wybrano sume 100
2020-06-13 20:07:56 - Do konta uzytkownika admin1 dodano sume 0
2020-06-13 20:13:42 - Zalogowano jako: admin1
2020-06-13 20:13:42 - Z konta uzytkownika admin1 wybrano sume 100
2020-06-13 20:13:42 - Do konta uzytkownika admin1 dodano sume 0
2020-06-13 20:21:21 - Zalogowano jako: admin2
2020-06-13 20:21:21 - Zalogowano jako: admin2
2020-06-13 20:21:21 - Z konta admin2 pobrano sume:  100
2020-06-13 20:26:56 - Zalogowano jako: admin1
2020-06-13 20:26:56 - Zalogowano jako: admin1
2020-06-13 20:30:35 - Zalogowano jako: admin1
2020-06-13 20:30:35 - Zalogowano jako: admin1
2020-06-13 20:30:35 - Z konta admin1 pobrano sume:  100
2020-06-13 20:34:52 - Zalogowano jako: admin1
2020-06-13 20:39:46 - Zalogowano jako: admin1
2020-06-13 20:39:46 - Z konta admin1 pobrano sume:  0
2020-06-13 20:39:46 - Do konta admin1 dodano sume 0
2020-06-13 20:39:46 - Do konta admin1 dodano sume 3
2020-06-13 20:39:46 - Do konta admin1 dodano sume 0
2020-06-13 20:39:46 - Zalogowano jako: admin1
2020-06-13 20:39:46 - Do konta admin1 dodano sume 100
2020-06-13 20:39:46 - Z konta admin1 pobrano sume:  100
2020-06-13 20:47:13 - Zalogowano jako: admin1
2020-06-13 20:47:13 - Do konta admin1 dodano sume 100
2020-06-13 20:47:13 - Z konta admin1 pobrano sume:  200
2020-06-13 20:47:13 - Do konta admin1 dodano sume 0
2020-06-13 20:47:13 - Do konta admin1 dodano sume 0
2020-06-13 20:47:13 - Zalogowano jako: admin1
2020-06-13 20:47:13 - Do konta admin1 dodano sume 1000
2020-06-13 20:47:13 - Z konta admin1 pobrano sume:  1000
2020-06-13 20:47:13 - Zalogowano jako: admin1
2020-06-13 20:47:13 - Z konta admin1 pobrano sume:  0
2020-06-13 20:47:13 - Do konta admin1 dodano sume 0
2020-06-13 20:56:54 - Zalogowano jako: admin1
2020-06-13 20:56:54 - Do konta admin1 dodano sume 100
2020-06-13 20:56:54 - Z konta admin1 pobrano sume:  200
2020-06-13 20:56:54 - Zalogowano jako: admin1
2020-06-13 20:56:54 - Z konta admin1 pobrano sume:  0
2020-06-13 20:56:54 - Do konta admin1 dodano sume 0
2020-06-13 20:56:54 - Zalogowano jako: admin1
2020-06-13 20:56:54 - Z konta admin1 pobrano sume:  0
2020-06-13 20:56:54 - Do konta admin1 dodano sume 0
2020-06-13 20:56:54 - Z konta admin1 pobrano sume:  1
2020-06-13 20:56:54 - Do konta admin1 dodano sume 0
2020-06-13 20:56:54 - Zalogowano jako: admin1
2020-06-13 20:56:54 - Do konta admin1 dodano sume 100
2020-06-13 20:56:54 - Z konta admin1 pobrano sume:  1000
2020-06-13 20:56:54 - Do konta admin1 dodano sume 20000
2020-06-13 20:56:54 - Z konta admin1 pobrano sume:  0
2020-06-13 21:16:02 - Zalogowano jako: admin1
2020-06-13 21:16:02 - Z konta admin1 pobrano sume:  0
2020-06-13 21:16:02 - Do konta admin1 dodano sume 0
2020-06-13 21:16:02 - Z konta admin1 pobrano sume:  1
2020-06-13 21:18:12 - Zalogowano jako: admin1
2020-06-13 21:18:12 - Zalogowano jako: admin1
2020-06-13 21:18:12 - Do konta admin1 dodano sume 100
2020-06-13 21:18:12 - Do konta admin1 dodano sume 100
2020-06-13 21:18:12 - Z konta admin1 pobrano sume:  200
2020-06-13 21:18:12 - Z konta admin1 pobrano sume:  100
2020-06-13 21:23:05 - Zalogowano jako: admin1
2020-06-13 21:23:05 - Do konta admin1 dodano sume 100
2020-06-13 21:23:05 - Do konta admin1 dodano sume 1100
2020-06-13 21:23:05 - Z konta admin1 pobrano sume:  2000
2020-06-14 13:10:38 - Zalogowano jako: admin1
2020-06-14 13:22:03 - Zalogowano jako: admin1
2020-06-14 13:22:03 - Do konta admin1 dodano sume 0
2020-06-14 13:22:03 - Do konta admin1 dodano sume 0
2020-06-14 13:22:03 - Zalogowano jako: admin1
2020-06-14 13:22:03 - Zalogowano jako: admin1
2020-06-14 13:22:03 - Do konta admin1 dodano sume 400
2020-06-14 13:22:03 - Z konta admin1 pobrano sume:  1000
2020-06-14 13:22:03 - Z konta admin1 pobrano sume:  0
2020-06-14 13:22:03 - Z konta admin1 pobrano sume:  0
2020-06-14 13:35:19 - Zalogowano jako: admin1
2020-06-14 13:35:19 - Do konta admin1 dodano sume 100
2020-06-14 13:35:19 - Zalogowano jako: admin1
2020-06-14 13:35:19 - Z konta admin1 pobrano sume:  200
2020-06-14 13:35:19 - Do konta admin1 dodano sume 200
2020-06-14 13:35:19 - Do konta admin1 dodano sume 0
2020-06-14 13:35:19 - Do konta admin1 dodano sume 0
2020-06-14 13:35:19 - Z konta admin1 pobrano sume:  2
2020-06-14 13:35:19 - Z konta admin1 pobrano sume:  20000
2020-06-14 13:35:19 - Do konta admin1 dodano sume 200
2020-06-14 13:35:19 - Z konta admin1 pobrano sume:  1000
2020-06-14 13:35:19 - Z konta admin1 pobrano sume:  0
2020-06-14 13:35:19 - Z konta admin1 pobrano sume:  0
2020-06-14 13:35:19 - Do konta admin1 dodano sume 100
2020-06-14 13:35:19 - Zalogowano jako: admin1
2020-06-14 13:35:19 - Zalogowano jako: admin1
2020-06-14 13:35:19 - Do konta admin1 dodano sume 100
2020-06-14 13:35:19 - Do konta admin1 dodano sume 100
2020-06-14 13:35:19 - Do konta admin1 dodano sume 100
2020-06-14 13:43:45 - Zalogowano jako: admin1
2020-06-14 13:43:45 - Zalogowano jako: admin1
2020-06-14 13:43:45 - Do konta admin1 dodano sume 100
2020-06-14 13:43:45 - Do konta admin1 dodano sume 100
2020-06-14 13:43:45 - Do konta admin1 dodano sume 200
2020-06-14 13:43:45 - Z konta admin1 pobrano sume:  0
2020-06-16 17:23:28 - Zalogowano jako: admin1
2020-06-16 17:23:28 - Do konta admin1 dodano sume 100
2020-06-16 17:23:28 - Z konta admin1 pobrano sume:  300
2020-06-16 17:23:28 - Do konta admin1 dodano sume 0
2020-06-16 17:23:28 - Do konta admin1 dodano sume 0
2020-06-21 17:28:47 - Zalogowano jako: admin1
2020-06-21 17:28:47 - Do konta admin1 dodano sume 100
2020-06-21 17:28:47 - Z konta admin1 pobrano sume:  10000
2020-06-21 17:28:47 - Zalogowano jako: admin1
2020-06-21 17:28:47 - Z konta admin1 pobrano sume:  100
2020-06-21 17:28:47 - Do konta admin1 dodano sume 0
2020-06-21 17:28:47 - Do konta admin1 dodano sume 0
2020-06-21 17:28:47 - Z konta admin1 pobrano sume:  0
2020-06-22 08:21:44 - Zalogowano jako: admin1
2020-06-22 08:21:44 - Zalogowano jako: admin2
2020-06-22 08:21:44 - Do konta admin1 dodano sume 1000
2020-06-22 08:21:44 - Z konta admin1 pobrano sume:  2000
2020-06-22 08:21:44 - Z konta admin1 pobrano sume:  1000
2020-06-22 08:21:44 - Zalogowano jako: admin1
2020-06-22 08:21:44 - Z konta admin1 pobrano sume:  0
2020-06-22 08:21:44 - Do konta admin1 dodano sume 0
2020-06-22 08:21:44 - Zalogowano jako: admin1
2020-06-22 08:21:44 - Do konta admin2 dodano sume 100
2020-06-22 08:21:44 - Do konta admin2 dodano sume 0
2020-06-22 08:21:44 - Zalogowano jako: admin1
2020-06-22 08:21:44 - Z konta admin1 pobrano sume:  1000
